<svg xmlns="http://www.w3.org/2000/svg" width="99" height="45" viewBox="0 0 99 45">
  <path fill="#2d3540" d="M48.834 25.665h1.545v3.46h1.115l2.002-3.46h1.689l-2.403 4.062v.028l2.546 4.433h-1.745l-2.06-3.719h-1.115v3.719h-1.545v-8.524h-.029zm9.955 2.26c1.858 0 3.375 1.344 3.375 3.203 0 1.888-1.487 3.204-3.347 3.204-1.86 0-3.347-1.316-3.347-3.204-.028-1.888 1.46-3.203 3.319-3.203zm4.576.142h1.459v4.806h1.917v-4.805h1.458v4.805h1.917v-4.805h1.459v6.12h-8.153v-6.121h-.057zm12.53-.142c1.744 0 2.716 1.287 2.716 2.889a4.267 4.267 0 0 1-.056.6h-4.206c.087 1.058.916 1.63 1.832 1.63.628 0 1.258-.286 1.744-.657l.601 1.087c-.63.542-1.574.886-2.46.886-2.031 0-3.29-1.459-3.29-3.204 0-1.916 1.287-3.231 3.119-3.231zm3.431 4.976c.744-.114 1.288-.743 1.288-2.917v-1.916h4.463v6.12H83.56v-4.892h-1.487v.687c0 2.66-.715 4.205-2.747 4.262V32.9zm10.098-4.976c1.745 0 2.717 1.287 2.717 2.889a4.267 4.267 0 0 1-.057.6H87.88c.086 1.058.916 1.63 1.831 1.63.629 0 1.258-.286 1.745-.657l.6 1.087c-.629.542-1.573.886-2.46.886-2.03 0-3.289-1.459-3.289-3.204 0-1.916 1.288-3.231 3.118-3.231zm3.976.142h1.516v2.346h.744l1.487-2.345h1.688l-1.945 2.917v.029l2.173 3.174h-1.772L95.688 31.7h-.8v2.488h-1.517v-6.121h.029zm-34.611 4.95c1.001 0 1.83-.773 1.83-1.918 0-1.115-.829-1.916-1.83-1.916-1.001 0-1.802.773-1.802 1.916 0 1.145.8 1.917 1.802 1.917zm18.278-2.66c0-.802-.544-1.288-1.23-1.288-.772 0-1.345.515-1.488 1.287h2.718zm13.53 0c0-.802-.543-1.288-1.23-1.288-.773 0-1.345.515-1.488 1.287h2.718z" />
  <path fill="#ff8c00" d="M70.202 7.1v14.446a.391.391 0 0 1-.4.4h-2.947a.391.391 0 0 1-.4-.4V7.1a.391.391 0 0 1 .4-.4h2.947a.391.391 0 0 1 .4.4zM93.2 6.7c.115 0 .258.057.4.172.086.085.086.228.058.343l-4.863 14.474a.407.407 0 0 1-.372.258h-2.632c-.171 0-.314-.087-.371-.258l-2.834-8.438-2.831 8.437a.407.407 0 0 1-.372.258h-2.631c-.172 0-.315-.086-.372-.258L71.517 7.214c-.029-.114-.029-.229.057-.342.057-.115.2-.172.314-.172h3.29c.172 0 .315.114.372.285l2.603 8.553 2.86-8.553a.407.407 0 0 1 .372-.257h2.317c.172 0 .315.086.372.257l2.86 8.553 2.604-8.553a.395.395 0 0 1 .372-.285h3.29zm4.977 0c.2 0 .372.172.4.4v14.446a.391.391 0 0 1-.4.4H95.23a.391.391 0 0 1-.4-.4V7.1a.391.391 0 0 1 .4-.4h2.946zM64.739 21.432c.171.2.028.485-.23.485h-3.604a.461.461 0 0 1-.372-.171l-.6-.744c-1.259.8-2.747 1.288-4.32 1.288a7.984 7.984 0 0 1-7.98-7.981 7.984 7.984 0 0 1 7.98-7.981 7.984 7.984 0 0 1 7.981 7.98 8.028 8.028 0 0 1-1.259 4.32l2.404 2.803zm-30.122 7.007c.745.287 1.03 1.401 1.088 1.888.114.887-.143 1.23-.429 1.23-.286 0-.687-.343-1.116-1.03-.429-.687-.6-1.458-.371-1.86.142-.257.457-.37.83-.228h-.002zm-4.347 3.233c.458 0 .973.2 1.43.6.887.744 1.145 1.602.687 2.232-.258.314-.687.514-1.173.514s-1.001-.171-1.344-.486c-.801-.686-1.03-1.831-.516-2.46.201-.258.516-.4.916-.4zm-10.01 8.266c-10.871 0-19.681-8.81-19.681-19.68S9.389.578 20.259.578c10.869 0 19.68 8.812 19.68 19.68 0 3.69-1.03 7.152-2.774 10.098-.058.085-.201.057-.23-.058-.686-4.833-3.633-7.494-7.923-8.295-.373-.057-.43-.286.057-.343 1.316-.114 3.175-.086 4.147.086.057-.487.086-1.001.086-1.516 0-7.18-5.835-13.016-13.015-13.016-7.18 0-13.015 5.836-13.015 13.016s5.836 13.016 13.016 13.016h.6a17.558 17.558 0 0 1-.258-3.52c.03-.8.2-.915.544-.286 1.802 3.118 4.377 5.922 9.41 7.037 4.12.916 8.239 1.974 12.672 7.609.4.486-.2 1-.658.6-4.519-4.004-8.638-5.32-12.385-5.32-4.205.03-7.065.572-9.955.572h.001zm37.327-21.71l-1.574-1.917c-.17-.2-.027-.515.23-.515h3.318c.171-.458.258-.973.258-1.487 0-2.374-1.774-4.434-4.206-4.434-2.43 0-4.205 2.06-4.205 4.434 0 2.373 1.775 4.405 4.205 4.405.687.028 1.374-.172 1.974-.486z" />
</svg>
